%YAML 1.1
%TAG !u! tag:unity3d.com,2011:
--- !u!1001 &100100000
Prefab:
  m_ObjectHideFlags: 1
  serializedVersion: 2
  m_Modification:
    m_TransformParent: {fileID: 0}
    m_Modifications: []
    m_RemovedComponents: []
  m_SourcePrefab: {fileID: 0}
  m_RootGameObject: {fileID: 1633628374792026}
  m_IsPrefabAsset: 1
--- !u!1 &1060277044633498
GameObject:
  m_ObjectHideFlags: 0
  m_CorrespondingSourceObject: {fileID: 0}
  m_PrefabInternal: {fileID: 100100000}
  serializedVersion: 6
  m_Component:
  - component: {fileID: 4790053026247132}
  - component: {fileID: 8195094280256577780}
  - component: {fileID: 3664157346119840726}
  m_Layer: 31
  m_Name: Layer1
  m_TagString: Untagged
  m_Icon: {fileID: 0}
  m_NavMeshLayer: 0
  m_StaticEditorFlags: 0
  m_IsActive: 1
--- !u!1 &1633628374792026
GameObject:
  m_ObjectHideFlags: 0
  m_CorrespondingSourceObject: {fileID: 0}
  m_PrefabInternal: {fileID: 100100000}
  serializedVersion: 6
  m_Component:
  - component: {fileID: 4593529292341220}
  - component: {fileID: 2569400266577248142}
  m_Layer: 31
  m_Name: Palette
  m_TagString: Untagged
  m_Icon: {fileID: 0}
  m_NavMeshLayer: 0
  m_StaticEditorFlags: 0
  m_IsActive: 1
--- !u!4 &4593529292341220
Transform:
  m_ObjectHideFlags: 1
  m_CorrespondingSourceObject: {fileID: 0}
  m_PrefabInternal: {fileID: 100100000}
  m_GameObject: {fileID: 1633628374792026}
  m_LocalRotation: {x: 0, y: 0, z: 0, w: 1}
  m_LocalPosition: {x: 0, y: 0, z: 0}
  m_LocalScale: {x: 1, y: 1, z: 1}
  m_Children:
  - {fileID: 4790053026247132}
  m_Father: {fileID: 0}
  m_RootOrder: 0
  m_LocalEulerAnglesHint: {x: 0, y: 0, z: 0}
--- !u!4 &4790053026247132
Transform:
  m_ObjectHideFlags: 1
  m_CorrespondingSourceObject: {fileID: 0}
  m_PrefabInternal: {fileID: 100100000}
  m_GameObject: {fileID: 1060277044633498}
  m_LocalRotation: {x: -0, y: -0, z: -0, w: 1}
  m_LocalPosition: {x: 0, y: 0, z: 0}
  m_LocalScale: {x: 1, y: 1, z: 1}
  m_Children: []
  m_Father: {fileID: 4593529292341220}
  m_RootOrder: 0
  m_LocalEulerAnglesHint: {x: 0, y: 0, z: 0}
--- !u!114 &114928483572082488
MonoBehaviour:
  m_ObjectHideFlags: 0
  m_CorrespondingSourceObject: {fileID: 0}
  m_PrefabInternal: {fileID: 0}
  m_GameObject: {fileID: 0}
  m_Enabled: 1
  m_EditorHideFlags: 1
  m_Script: {fileID: 12395, guid: 0000000000000000e000000000000000, type: 0}
  m_Name: Palette Settings
  m_EditorClassIdentifier: 
  cellSizing: 0
--- !u!156049354 &2569400266577248142
Grid:
  m_ObjectHideFlags: 1
  m_CorrespondingSourceObject: {fileID: 0}
  m_PrefabInternal: {fileID: 100100000}
  m_GameObject: {fileID: 1633628374792026}
  m_Enabled: 1
  m_CellSize: {x: 1.28, y: 1.28, z: 0}
  m_CellGap: {x: 0, y: 0, z: 0}
  m_CellLayout: 0
  m_CellSwizzle: 0
--- !u!483693784 &3664157346119840726
TilemapRenderer:
  m_ObjectHideFlags: 1
  m_CorrespondingSourceObject: {fileID: 0}
  m_PrefabInternal: {fileID: 100100000}
  m_GameObject: {fileID: 1060277044633498}
  m_Enabled: 0
  m_CastShadows: 0
  m_ReceiveShadows: 0
  m_DynamicOccludee: 0
  m_MotionVectors: 1
  m_LightProbeUsage: 0
  m_ReflectionProbeUsage: 0
  m_RenderingLayerMask: 4294967295
  m_Materials:
  - {fileID: 10754, guid: 0000000000000000f000000000000000, type: 0}
  m_StaticBatchInfo:
    firstSubMesh: 0
    subMeshCount: 0
  m_StaticBatchRoot: {fileID: 0}
  m_ProbeAnchor: {fileID: 0}
  m_LightProbeVolumeOverride: {fileID: 0}
  m_ScaleInLightmap: 1
  m_PreserveUVs: 0
  m_IgnoreNormalsForChartDetection: 0
  m_ImportantGI: 0
  m_StitchLightmapSeams: 0
  m_SelectedEditorRenderState: 0
  m_MinimumChartSize: 4
  m_AutoUVMaxDistance: 0.5
  m_AutoUVMaxAngle: 89
  m_LightmapParameters: {fileID: 0}
  m_SortingLayerID: 0
  m_SortingLayer: 0
  m_SortingOrder: 0
  m_ChunkSize: {x: 32, y: 32, z: 32}
  m_ChunkCullingBounds: {x: 0, y: 0, z: 0}
  m_MaxChunkCount: 16
  m_MaxFrameAge: 16
  m_SortOrder: 0
  m_DetectChunkCullingBounds: 0
  m_MaskInteraction: 0
--- !u!1839735485 &8195094280256577780
Tilemap:
  m_ObjectHideFlags: 1
  m_CorrespondingSourceObject: {fileID: 0}
  m_PrefabInternal: {fileID: 100100000}
  m_GameObject: {fileID: 1060277044633498}
  m_Enabled: 1
  m_Tiles:
  - first: {x: -5, y: -7, z: 0}
    second:
      m_TileIndex: 19
      m_TileSpriteIndex: 19
      m_TileMatrixIndex: 0
      m_TileColorIndex: 0
      m_ObjectToInstantiate: {fileID: 0}
      m_TileFlags: 1
      m_ColliderType: 1
  - first: {x: -3, y: -7, z: 0}
    second:
      m_TileIndex: 20
      m_TileSpriteIndex: 20
      m_TileMatrixIndex: 0
      m_TileColorIndex: 0
      m_ObjectToInstantiate: {fileID: 0}
      m_TileFlags: 1
      m_ColliderType: 1
  - first: {x: -1, y: -7, z: 0}
    second:
      m_TileIndex: 21
      m_TileSpriteIndex: 21
      m_TileMatrixIndex: 0
      m_TileColorIndex: 0
      m_ObjectToInstantiate: {fileID: 0}
      m_TileFlags: 1
      m_ColliderType: 1
  - first: {x: 1, y: -7, z: 0}
    second:
      m_TileIndex: 22
      m_TileSpriteIndex: 22
      m_TileMatrixIndex: 0
      m_TileColorIndex: 0
      m_ObjectToInstantiate: {fileID: 0}
      m_TileFlags: 1
      m_ColliderType: 1
  - first: {x: -5, y: -5, z: 0}
    second:
      m_TileIndex: 14
      m_TileSpriteIndex: 14
      m_TileMatrixIndex: 0
      m_TileColorIndex: 0
      m_ObjectToInstantiate: {fileID: 0}
      m_TileFlags: 1
      m_ColliderType: 1
  - first: {x: -3, y: -5, z: 0}
    second:
      m_TileIndex: 15
      m_TileSpriteIndex: 15
      m_TileMatrixIndex: 0
      m_TileColorIndex: 0
      m_ObjectToInstantiate: {fileID: 0}
      m_TileFlags: 1
      m_ColliderType: 1
  - first: {x: -1, y: -5, z: 0}
    second:
      m_TileIndex: 16
      m_TileSpriteIndex: 16
      m_TileMatrixIndex: 0
      m_TileColorIndex: 0
      m_ObjectToInstantiate: {fileID: 0}
      m_TileFlags: 1
      m_ColliderType: 1
  - first: {x: 1, y: -5, z: 0}
    second:
      m_TileIndex: 17
      m_TileSpriteIndex: 17
      m_TileMatrixIndex: 0
      m_TileColorIndex: 0
      m_ObjectToInstantiate: {fileID: 0}
      m_TileFlags: 1
      m_ColliderType: 1
  - first: {x: 3, y: -5, z: 0}
    second:
      m_TileIndex: 18
      m_TileSpriteIndex: 18
      m_TileMatrixIndex: 0
      m_TileColorIndex: 0
      m_ObjectToInstantiate: {fileID: 0}
      m_TileFlags: 1
      m_ColliderType: 1
  - first: {x: -5, y: -3, z: 0}
    second:
      m_TileIndex: 10
      m_TileSpriteIndex: 10
      m_TileMatrixIndex: 0
      m_TileColorIndex: 0
      m_ObjectToInstantiate: {fileID: 0}
      m_TileFlags: 1
      m_ColliderType: 1
  - first: {x: -3, y: -3, z: 0}
    second:
      m_TileIndex: 11
      m_TileSpriteIndex: 11
      m_TileMatrixIndex: 0
      m_TileColorIndex: 0
      m_ObjectToInstantiate: {fileID: 0}
      m_TileFlags: 1
      m_ColliderType: 1
  - first: {x: -1, y: -3, z: 0}
    second:
      m_TileIndex: 12
      m_TileSpriteIndex: 12
      m_TileMatrixIndex: 0
      m_TileColorIndex: 0
      m_ObjectToInstantiate: {fileID: 0}
      m_TileFlags: 1
      m_ColliderType: 1
  - first: {x: 1, y: -3, z: 0}
    second:
      m_TileIndex: 13
      m_TileSpriteIndex: 13
      m_TileMatrixIndex: 0
      m_TileColorIndex: 0
      m_ObjectToInstantiate: {fileID: 0}
      m_TileFlags: 1
      m_ColliderType: 1
  - first: {x: -5, y: -1, z: 0}
    second:
      m_TileIndex: 6
      m_TileSpriteIndex: 6
      m_TileMatrixIndex: 0
      m_TileColorIndex: 0
      m_ObjectToInstantiate: {fileID: 0}
      m_TileFlags: 1
      m_ColliderType: 1
  - first: {x: -3, y: -1, z: 0}
    second:
      m_TileIndex: 7
      m_TileSpriteIndex: 7
      m_TileMatrixIndex: 0
      m_TileColorIndex: 0
      m_ObjectToInstantiate: {fileID: 0}
      m_TileFlags: 1
      m_ColliderType: 1
  - first: {x: -1, y: -1, z: 0}
    second:
      m_TileIndex: 8
      m_TileSpriteIndex: 8
      m_TileMatrixIndex: 0
      m_TileColorIndex: 0
      m_ObjectToInstantiate: {fileID: 0}
      m_TileFlags: 1
      m_ColliderType: 1
  - first: {x: 1, y: -1, z: 0}
    second:
      m_TileIndex: 9
      m_TileSpriteIndex: 9
      m_TileMatrixIndex: 0
      m_TileColorIndex: 0
      m_ObjectToInstantiate: {fileID: 0}
      m_TileFlags: 1
      m_ColliderType: 1
  - first: {x: -5, y: 1, z: 0}
    second:
      m_TileIndex: 0
      m_TileSpriteIndex: 0
      m_TileMatrixIndex: 0
      m_TileColorIndex: 0
      m_ObjectToInstantiate: {fileID: 0}
      m_TileFlags: 1
      m_ColliderType: 1
  - first: {x: -3, y: 1, z: 0}
    second:
      m_TileIndex: 1
      m_TileSpriteIndex: 1
      m_TileMatrixIndex: 0
      m_TileColorIndex: 0
      m_ObjectToInstantiate: {fileID: 0}
      m_TileFlags: 1
      m_ColliderType: 1
  - first: {x: -1, y: 1, z: 0}
    second:
      m_TileIndex: 2
      m_TileSpriteIndex: 2
      m_TileMatrixIndex: 0
      m_TileColorIndex: 0
      m_ObjectToInstantiate: {fileID: 0}
      m_TileFlags: 1
      m_ColliderType: 1
  - first: {x: 1, y: 1, z: 0}
    second:
      m_TileIndex: 3
      m_TileSpriteIndex: 3
      m_TileMatrixIndex: 0
      m_TileColorIndex: 0
      m_ObjectToInstantiate: {fileID: 0}
      m_TileFlags: 1
      m_ColliderType: 1
  - first: {x: 3, y: 1, z: 0}
    second:
      m_TileIndex: 4
      m_TileSpriteIndex: 4
      m_TileMatrixIndex: 0
      m_TileColorIndex: 0
      m_ObjectToInstantiate: {fileID: 0}
      m_TileFlags: 1
      m_ColliderType: 1
  - first: {x: 5, y: 1, z: 0}
    second:
      m_TileIndex: 5
      m_TileSpriteIndex: 5
      m_TileMatrixIndex: 0
      m_TileColorIndex: 0
      m_ObjectToInstantiate: {fileID: 0}
      m_TileFlags: 1
      m_ColliderType: 1
  m_AnimatedTiles: {}
  m_TileAssetArray:
  - m_RefCount: 1
    m_Data: {fileID: 11400000, guid: 6cacc59178282c84a8a0532a2afa0fbb, type: 2}
  - m_RefCount: 1
    m_Data: {fileID: 11400000, guid: 667d13e9d92facf49ad10293be958260, type: 2}
  - m_RefCount: 1
    m_Data: {fileID: 11400000, guid: 5e6e5d855dcdeea47891b8fc4f4e2686, type: 2}
  - m_RefCount: 1
    m_Data: {fileID: 11400000, guid: 001ff5cba12ef3b4fa89c89051204531, type: 2}
  - m_RefCount: 1
    m_Data: {fileID: 11400000, guid: b02ae893610d6484cb3bf98d6490be01, type: 2}
  - m_RefCount: 1
    m_Data: {fileID: 11400000, guid: 8ccf267d0c455d64e93fb0ed6dd8f673, type: 2}
  - m_RefCount: 1
    m_Data: {fileID: 11400000, guid: 9ef84102391dc774b8ae50e390503d58, type: 2}
  - m_RefCount: 1
    m_Data: {fileID: 11400000, guid: d9a86d60352734a4d9778f6b33389f16, type: 2}
  - m_RefCount: 1
    m_Data: {fileID: 11400000, guid: 3eabcfa6854ed0b42a8054cbbf93d062, type: 2}
  - m_RefCount: 1
    m_Data: {fileID: 11400000, guid: 396fd317e8c770b40bd10d1a6247fe81, type: 2}
  - m_RefCount: 1
    m_Data: {fileID: 11400000, guid: 8e5fd9416d18ab54c9c0f3470596023f, type: 2}
  - m_RefCount: 1
    m_Data: {fileID: 11400000, guid: 1473bcc668dd76b4292563aa9d499133, type: 2}
  - m_RefCount: 1
    m_Data: {fileID: 11400000, guid: cbe8b3416f4cce245a01fe8ce72c5379, type: 2}
  - m_RefCount: 1
    m_Data: {fileID: 11400000, guid: 6e3e395da0b4fe4449f29e5c33933a05, type: 2}
  - m_RefCount: 1
    m_Data: {fileID: 11400000, guid: c8f5c66b1d681ec4da67e6e78808dad9, type: 2}
  - m_RefCount: 1
    m_Data: {fileID: 11400000, guid: c7c727c39568e62428b40b546306c989, type: 2}
  - m_RefCount: 1
    m_Data: {fileID: 11400000, guid: 4cc7a2caa60d3934c817b778308ebc75, type: 2}
  - m_RefCount: 1
    m_Data: {fileID: 11400000, guid: 4dfc33793b492b049b197917cb8284df, type: 2}
  - m_RefCount: 1
    m_Data: {fileID: 11400000, guid: 68defc3908c0be44aa29055b7eb5fa92, type: 2}
  - m_RefCount: 1
    m_Data: {fileID: 11400000, guid: 7d47933792187cb4bb452e824c16826c, type: 2}
  - m_RefCount: 1
    m_Data: {fileID: 11400000, guid: 28f1257618a18ea46950a9d1e9645423, type: 2}
  - m_RefCount: 1
    m_Data: {fileID: 11400000, guid: 3e2f7c68a1dc996428513f14e45a6ac7, type: 2}
  - m_RefCount: 1
    m_Data: {fileID: 11400000, guid: e70033cd0b89cf047b1e3c1b6afdaa5b, type: 2}
  m_TileSpriteArray:
  - m_RefCount: 1
    m_Data: {fileID: 21300000, guid: 258ced7a9926407449da3faa6b1b7fb0, type: 3}
  - m_RefCount: 1
    m_Data: {fileID: 21300000, guid: 250c329a389c22a49952d5881d5abeec, type: 3}
  - m_RefCount: 1
    m_Data: {fileID: 21300000, guid: 7c9bdfbc98dd12c4484db30f4ce8da5e, type: 3}
  - m_RefCount: 1
    m_Data: {fileID: 21300000, guid: 7c0fa7ac858609e4aa67b0b978921bcb, type: 3}
  - m_RefCount: 1
    m_Data: {fileID: 21300000, guid: 6d5f2cc453009044da7e9d62b5ee9a2e, type: 3}
  - m_RefCount: 1
    m_Data: {fileID: 21300000, guid: f0bffdf7bd0cd5b468208bb049eb3980, type: 3}
  - m_RefCount: 1
    m_Data: {fileID: 21300000, guid: 130ad3e930c27ff4db751f5244a50549, type: 3}
  - m_RefCount: 1
    m_Data: {fileID: 21300000, guid: 76d22ce6aace37e4ca81a7831d516903, type: 3}
  - m_RefCount: 1
    m_Data: {fileID: 21300000, guid: 99f26329430965140934b29217a84be7, type: 3}
  - m_RefCount: 1
    m_Data: {fileID: 21300000, guid: fc1af950d66100d4c88fd5b3af1524af, type: 3}
  - m_RefCount: 1
    m_Data: {fileID: 21300000, guid: e9be7925c5e3f814899789b692c1e60d, type: 3}
  - m_RefCount: 1
    m_Data: {fileID: 21300000, guid: 61fa27570d5b48241a5adf414cb7ce7c, type: 3}
  - m_RefCount: 1
    m_Data: {fileID: 21300000, guid: 649edd28af01b884cac8f02eec4f3534, type: 3}
  - m_RefCount: 1
    m_Data: {fileID: 21300000, guid: 20535e3a8b0059442883bba1c82f49aa, type: 3}
  - m_RefCount: 1
    m_Data: {fileID: 21300000, guid: bc46245cf1d08b94d8c3697d108be68e, type: 3}
  - m_RefCount: 1
    m_Data: {fileID: 21300000, guid: 7854311c734016044a4598da4fff2973, type: 3}
  - m_RefCount: 1
    m_Data: {fileID: 21300000, guid: d466f3acc58b6954aa5ea91486b1b203, type: 3}
  - m_RefCount: 1
    m_Data: {fileID: 21300000, guid: d086f09af8ba42045a3de55cf2912578, type: 3}
  - m_RefCount: 1
    m_Data: {fileID: 21300000, guid: 8b67a504253b73f438101dd1e5cdbc27, type: 3}
  - m_RefCount: 1
    m_Data: {fileID: 21300000, guid: 6680fc1910c5fe648ad31c2d9e4bb368, type: 3}
  - m_RefCount: 1
    m_Data: {fileID: 21300000, guid: 9a2de7c39dade4b43b1d1939ae13da00, type: 3}
  - m_RefCount: 1
    m_Data: {fileID: 21300000, guid: e1e9b5abe513eab4aae19803c8458ce8, type: 3}
  - m_RefCount: 1
    m_Data: {fileID: 21300000, guid: 63ad18c6725ff2f49bf12bee1e398d8e, type: 3}
  m_TileMatrixArray:
  - m_RefCount: 23
    m_Data:
      e00: 1
      e01: 0
      e02: 0
      e03: 0
      e10: 0
      e11: 1
      e12: 0
      e13: 0
      e20: 0
      e21: 0
      e22: 1
      e23: 0
      e30: 0
      e31: 0
      e32: 0
      e33: 1
  m_TileColorArray:
  - m_RefCount: 23
    m_Data: {r: 1, g: 1, b: 1, a: 1}
  m_AnimationFrameRate: 1
  m_Color: {r: 1, g: 1, b: 1, a: 1}
  m_Origin: {x: -5, y: -7, z: 0}
  m_Size: {x: 11, y: 9, z: 1}
  m_TileAnchor: {x: 0.5, y: 0.5, z: 0}
  m_TileOrientation: 0
  m_TileOrientationMatrix:
    e00: 1
    e01: 0
    e02: 0
    e03: 0
    e10: 0
    e11: 1
    e12: 0
    e13: 0
    e20: 0
    e21: 0
    e22: 1
    e23: 0
    e30: 0
    e31: 0
    e32: 0
    e33: 1
